example 01: Read and manipulate data
…
#>   .. ..@ detailed_tst_criteria:List of 9
#>   .. .. ..$ year               :  expression(year == 1974L)
#>   .. .. ..$ quarter            :  expression(quarter == 1L)
#>   .. .. ..$ area               :  expression(area == 26)
#>   .. .. ..$ pred_l             :  expression(pred_l %in% 400:499)
#>   .. .. ..$ pred_size          :  expression(pred_size == "0400-0499")
#>   .. .. ..$ pred_name          :  expression(pred_name == "Gadus morhua")
#>   .. .. ..$ stratum_time       :  expression(stratum_time == "1974-Q1")
#>   .. .. ..$ stratum_time       :  expression(stratum_area == "SD-26")
#>   .. .. ..$ my_output_variables: chr [1:10] "dataset" "country" "area" "year" ...
#>  - attr(*, "class")= chr "STOMobs"
#>  - attr(*, "PRED")= chr [1:21] "dataset" "country" "ship" "rectangle" ...
#>  - attr(*, "PREY")= chr [1:10] "sample_id" "fish_id" "prey_name" "digest" ...
s[['PRED']]
#> # A tibble: 4,104 x 21
#>    dataset country ship  rectangle area   year quarter month   day station haul 
#>    <fct>   <fct>   <fct> <fct>     <fct> <int>   <int> <int> <int> <fct>   <fct>
#>  1 NS      DEN     DAN2  40F6      7      1991       1     2    19 34      34   
#>  2 NS      DEN     DAN2  41F7      7      1991       1     2     7 1       1    
#>  3 NS      DEN     DAN2  38F8      6      1991       1     2     8 5       5    
#>  4 NS      DEN     DAN2  38E9      4      1991       1     2    13 20      20   
#>  5 NS      DEN     DAN2  37F3      6      1991       1     2    11 14      14   
#>  6 NS      DEN     DAN2  40F7      7      1991       1     2     7 2       2    
#>  7 NS      DEN     DAN2  41F7      7      1991       1     2     7 1       1    
#>  8 NS      DEN     DAN2  38E9      4      1991       1     2    13 20      20   
#>  9 NS      DEN     DAN2  37F3      6      1991       1     2    11 14      14   
#> 10 NS      DEN     DAN2  38F8      6      1991       1     2     8 5       5    
#> # ... with 4,094 more rows, and 10 more variables: sample_id <fct>,
#> #   fish_id <fct>, pred_name <fct>, pred_l <int>, pred_ll <int>, pred_lu <int>,
#> #   n_food <int>, n_regur <int>, n_skel <int>, n_empty <int>
s[['PREY']]
#> # A tibble: 16,160 x 10
#>    sample_id fish_id prey_name digest prey_l prey_ll prey_lu prey_w_meth prey_n
#>    <fct>     <fct>   <fct>      <int>  <dbl>   <int>   <int> <fct>        <int>
#>  1 Gadus mo~ 109     Pagurus ~      1     NA      NA      NA r                1
#>  2 Gadus mo~ 109     Buglossi~      1     NA      35      40 r                1
#>  3 Gadus mo~ 116     Pseudocu~      1     NA      12      15 r                1
#>  4 Gadus mo~ 116     Gammarid~      1     NA      12      15 r                1
#>  5 Gadus mo~ 116     Crangon ~      1     NA      25      30 r                1
#>  6 Gadus mo~ 116     Pomatosc~      1     NA      NA      NA r                1
#>  7 Gadus mo~ 128     Sprattus~      1     NA      80     100 r                1
#>  8 Gadus mo~ 131     Polychae~      1     NA      NA      NA r                1
#>  9 Gadus mo~ 131     Crangon ~      1     NA      25      30 r                1
#> 10 Gadus mo~ 139     Pagurus ~      1     NA      NA      NA r                1
#> # ... with 16,150 more rows, and 1 more variable: prey_w <dbl>
…
