Example 03: Estimate population diet
…
The input files for stratification can be made from a call to make_template_strata_weighting() using data and its control object. The call makes a csv file (if write_CSV=TRUE) and return a data set with the template for stratification at the strata level specified.

make_template_strata_weighting(s,strata=c('sub_strata','strata','total')[3],write_CSV=FALSE)

# to show the contents of stratification file as created above (with write_CSV=TRUE)
read_csv(file.path(system.file( package = "FishStomachs"),"extdata","weighting_total.csv"))
#> Rows: 239 Columns: 5
#> -- Column specification --------------------------------------------------------
#> Delimiter: ","
#> chr (4): pred_name, stratum_time, pred_size, stratum_area
#> dbl (1): w_fac_area
#> 
#> i Use `spec()` to retrieve the full column specification for this data.
#> i Specify the column types or set `show_col_types = FALSE` to quiet this message.
#> # A tibble: 239 x 5
#>    pred_name    stratum_time pred_size stratum_area w_fac_area
#>    <chr>        <chr>        <chr>     <chr>             <dbl>
#>  1 Gadus morhua 1991-Q1      0200-0249 R-7                   1
#>  2 Gadus morhua 1991-Q1      0200-0249 R-6                   1
#>  3 Gadus morhua 1991-Q1      0250-0299 R-4                   1
#>  4 Gadus morhua 1991-Q1      0250-0299 R-6                   1
#>  5 Gadus morhua 1991-Q1      0100-0149 R-7                   1
#>  6 Gadus morhua 1991-Q1      0300-0399 R-4                   1
#>  7 Gadus morhua 1991-Q1      0300-0399 R-6                   1
#>  8 Gadus morhua 1991-Q1      0100-0149 R-6                   1
#>  9 Gadus morhua 1991-Q1      0300-0399 R-7                   1
#> 10 Gadus morhua 1991-Q1      0300-0399 R-2                   1
#> # ... with 229 more rows
…
