Example 04: Population diet
…
load(file=file.path(system.file( package = "FishStomachs"),"extdata","ex03d.Rdata"))
d
#> Object of class 'STOMdiet'
#> ===========================
#> Number stomachs: 9660 
#> Predators: Gadus morhua 
#> Number of prey names: 8 
#> Prey names:Ammodytidae; Clupea harengus; Gadus morhua; Melanogrammus aeglefinus; 
#>     Merlangius merlangus; Sprattus sprattus; Trisopterus esmarkii; other; 
#> Temporal strata: 1991-Q1;  1991-Q2;  1991-Q3;  1991-Q4;

d[['PRED']]  # predator related information
#> # A tibble: 36 x 8
#>    stratum_area stratum_time pred_name pred_size pred_size_class n_tot
#>    <fct>        <fct>        <fct>     <fct>               <int> <int>
#>  1 all          1991-Q1      Gadus mo~ 0100-0149               3    42
#>  2 all          1991-Q1      Gadus mo~ 0150-0199               4   117
#>  3 all          1991-Q1      Gadus mo~ 0200-0249               5   123
#>  4 all          1991-Q1      Gadus mo~ 0250-0299               6    61
#>  5 all          1991-Q1      Gadus mo~ 0300-0399               7   379
#>  6 all          1991-Q1      Gadus mo~ 0400-0499               8   327
#>  7 all          1991-Q1      Gadus mo~ 0500-0699               9   610
#>  8 all          1991-Q1      Gadus mo~ 0700-0999              10   444
#>  9 all          1991-Q1      Gadus mo~ 1000-1499              11    84
#> 10 all          1991-Q2      Gadus mo~ 0100-0149               3     6
#> # ... with 26 more rows, and 2 more variables: pred_l_mean <dbl>, key <fct>
d[['PREY']]  # prey related information
#> # A tibble: 469 x 5
#>    key                         prey_name       prey_size prey_size_class  prey_w
#>    <fct>                       <fct>           <fct>               <int>   <dbl>
#>  1 all_Gadus morhua_1991-Q1_0~ other           9999-9999               0 1.75e+1
#>  2 all_Gadus morhua_1991-Q1_0~ Ammodytidae     0070-0099               2 4.54e-1
#>  3 all_Gadus morhua_1991-Q1_0~ Ammodytidae     0150-0199               4 1.47e+0
#>  4 all_Gadus morhua_1991-Q1_0~ other           9999-9999               0 1.89e+1
#>  5 all_Gadus morhua_1991-Q1_0~ Sprattus sprat~ 0050-0069               1 8.54e-3
#>  6 all_Gadus morhua_1991-Q1_0~ Sprattus sprat~ 0070-0099               2 5.85e-2
#>  7 all_Gadus morhua_1991-Q1_0~ Ammodytidae     0050-0069               1 4.75e+0
#>  8 all_Gadus morhua_1991-Q1_0~ Ammodytidae     0100-0149               3 1.91e-1
#>  9 all_Gadus morhua_1991-Q1_0~ other           9999-9999               0 4.16e+1
#> 10 all_Gadus morhua_1991-Q1_0~ Sprattus sprat~ 0070-0099               2 1.47e+0
#> # ... with 459 more rows
…
rm(d1,d2)

It is also possible to transform STOMdiet object into a plain data.frame, modify data and convert back again.

# convert into a data frame
df<-as.data.frame(d)
df
#> # A tibble: 469 x 12
#>    stratum_area stratum_time pred_name pred_size pred_size_class n_tot
#>    <fct>        <fct>        <fct>     <fct>               <int> <int>
#>  1 all          1991-Q1      Gadus mo~ 0100-0149               3    42
#>  2 all          1991-Q1      Gadus mo~ 0150-0199               4   117
#>  3 all          1991-Q1      Gadus mo~ 0150-0199               4   117
#>  4 all          1991-Q1      Gadus mo~ 0150-0199               4   117
#>  5 all          1991-Q1      Gadus mo~ 0150-0199               4   117
#>  6 all          1991-Q1      Gadus mo~ 0150-0199               4   117
#>  7 all          1991-Q1      Gadus mo~ 0200-0249               5   123
#>  8 all          1991-Q1      Gadus mo~ 0200-0249               5   123
#>  9 all          1991-Q1      Gadus mo~ 0200-0249               5   123
#> 10 all          1991-Q1      Gadus mo~ 0200-0249               5   123
#> # ... with 459 more rows, and 6 more variables: pred_l_mean <dbl>, key <fct>,
#> #   prey_name <fct>, prey_size <fct>, prey_size_class <int>, prey_w <dbl>
…
