Example 05:Create data for model
…
# in this case the default setting are fine, however 
# they could be changed by a call to edit_control(), see example 3

The options are mainly how to handle missing values (“wholes”) for prey sizes. If for example, there are information for prey herring 5-7 cm and 10-15 cm (but no 7-10 cm), the option insert_mid_value=TRUE will insert a low weight proportion “mid_value” for the herring size 7-10 cm. The option “insert_tails” is for adding low weight proportions with a size smaller (and higher) than the observed size range.

The function for converting data (“model_output”) reqires two input files; one for specfifyingn length classes and one file for intenal MS numbering and naming of species. Data and call are shown below.

read_csv(system.file("extdata","length_classes.csv",package = "FishStomachs"),col_types=cols())
#> # A tibble: 2,136 x 7
#>    Species  year quarter    l1    l2    no group    
#>    <chr>   <dbl>   <dbl> <dbl> <dbl> <dbl> <chr>    
#>  1 ALL      1981       1    50    69     1 0050-0069
#>  2 ALL      1981       1    70    99     2 0070-0099
#>  3 ALL      1981       1   100   149     3 0100-0149
#>  4 ALL      1981       1   150   199     4 0150-0199
#>  5 ALL      1981       1   200   249     5 0200-0249
#>  6 ALL      1981       1   250   299     6 0250-0299
#>  7 ALL      1981       1   300   399     7 0300-0399
#>  8 ALL      1981       1   400   499     8 0400-0499
#>  9 ALL      1981       1   500   699     9 0500-0699
#> 10 ALL      1981       1   700   999    10 0700-0999
#> # ... with 2,126 more rows
…
# create data for the SMS model
SMS<-model_output(d, length_classes_file=system.file("extdata","length_classes.csv",package = "FishStomachs"),
                  sp_info_file=system.file("extdata","species_info.csv",package = "FishStomachs"),
                  intoSMSformat=FALSE) 
 
SMS
#> # A tibble: 471 x 16
#>    area   year quarter predator pred_id_number pred_size pred_size_class
#>    <chr> <int>   <int> <chr>             <int> <chr>               <int>
#>  1 all    1991       1 COD                   2 0100-0149               3
#>  2 all    1991       1 COD                   2 0150-0199               4
#>  3 all    1991       1 COD                   2 0150-0199               4
#>  4 all    1991       1 COD                   2 0150-0199               4
#>  5 all    1991       1 COD                   2 0150-0199               4
#>  6 all    1991       1 COD                   2 0150-0199               4
#>  7 all    1991       1 COD                   2 0200-0249               5
#>  8 all    1991       1 COD                   2 0200-0249               5
#>  9 all    1991       1 COD                   2 0200-0249               5
#> 10 all    1991       1 COD                   2 0200-0249               5
#> # ... with 461 more rows, and 9 more variables: pred_l_mean <dbl>,
#> #   sampling_effort <int>, prey <chr>, prey_id_number <int>, prey_size <chr>,
#> #   prey_size_class <int>, prey_l_mean <dbl>, prey_w <dbl>, type <chr>
